{"columns":[{"key":"Num","label":"Number","type":"Number"},{"key":"Picture","label":"Picture","type":"Image"},{"key":"Name","label":"Name","type":"String"},{"key":"Pos","label":"Position","type":"String"},{"key":"Height","label":"Height","type":"String"},{"key":"Weight","label":"Weight","type":"Number"},{"key":"Birthday","label":"Birthday","type":"String"},{"key":"Years","label":"Years","type":"Number"}],"items":[{"Num":32,"Picture":"http:\/\/stats.nba.com\/media\/players\/230x185\/201933.png","Name":"Blake Griffin","Pos":"F","Height":"6-10","Weight":251,"Birthday":"03\/16\/1989","Years":"4"},{"Num":30,"Picture":"http:\/\/stats.nba.com\/media\/players\/230x185\/203912.png","Name":"C.J.Wilcox","Pos":"G","Height":"6-5","Weight":195,"Birthday":"12\/30\/1990","Years":"R"},{"Num":14,"Picture":"http:\/\/stats.nba.com\/media\/players\/230x185\/201604.png","Name":"Chris Douglas-Roberts","Pos":"SG","Height":"6-7","Weight":200,"Birthday":"01\/08\/1987","Years":"5"},{"Num":3,"Picture":"http:\/\/stats.nba.com\/media\/players\/230x185\/101108.png","Name":"Chris Paul","Pos":"G","Height":"6-0","Weight":175,"Birthday":"05\/06\/1985","Years":"9"},{"Num":6,"Picture":"http:\/\/stats.nba.com\/media\/players\/230x185\/201599.png","Name":"DeAndre Jordan","Pos":"C","Height":"6-11","Weight":250,"Birthday":"07\/21\/1988","Years":"6"}],"paginate":{"page":1,"pages":3,"offset":0,"row_count":5,"total":15,"col_name":"Name","direction":"asc"}}