{"columns":[{"key":"Num","label":"Number","type":"Number"},{"key":"Picture","label":"Picture","type":"Image"},{"key":"Name","label":"Name","type":"String"},{"key":"Pos","label":"Position","type":"String"},{"key":"Height","label":"Height","type":"String"},{"key":"Weight","label":"Weight","type":"Number"},{"key":"Birthday","label":"Birthday","type":"String"},{"key":"Years","label":"Years","type":"Number"}],"items":[{"Name":"Chris Paul","Num":3,"Years":"9","Birthday":"05/06/1985","Picture":"http://stats.nba.com/media/players/230x185/101108.png","Pos":"G","Height":"6-0","Weight":175},{"Name":"DeAndre Jordan","Num":6,"Years":"6","Birthday":"07/21/1988","Picture":"http://stats.nba.com/media/players/230x185/201599.png","Pos":"C","Height":"6-11","Weight":250},{"Name":"Chris Douglas-Roberts","Num":14,"Years":"5","Birthday":"01/08/1987","Picture":"http://stats.nba.com/media/players/230x185/201604.png","Pos":"SG","Height":"6-7","Weight":200},{"Name":"C.J.Wilcox","Num":30,"Years":"R","Birthday":"12/30/1990","Picture":"http://stats.nba.com/media/players/230x185/203912.png","Pos":"G","Height":"6-5","Weight":195},{"Name":"Blake Griffin","Num":32,"Years":"4","Birthday":"03/16/1989","Picture":"http://stats.nba.com/media/players/230x185/201933.png","Pos":"F","Height":"6-10","Weight":251}],"paginate":{"col_name":"Name","direction":"asc","offset":0,"page":1,"pages":3,"row_count":5,"total":15}}